Lab 3/CS223_Lab3/Lab3.sim/sim_1/behav/xsim/simulate.log
Time resolution is 1 ps
-------------------------------------------
 time | sw (Hex) | a b c d e f g | an
-------------------------------------------
                   0 |    0     | 0 0 0 0 0 0 1 | 1110
               10000 |    1     | 1 0 0 1 1 1 1 | 1110
               20000 |    2     | 0 0 1 0 0 1 0 | 1110
               30000 |    3     | 0 0 0 0 1 1 0 | 1110
               40000 |    4     | 1 0 0 1 1 0 0 | 1110
               50000 |    5     | 0 1 0 0 1 0 0 | 1110
               60000 |    6     | 0 1 0 0 0 0 0 | 1110
               70000 |    7     | 0 0 0 1 1 1 1 | 1110
               80000 |    8     | 0 0 0 0 0 0 0 | 1110
               90000 |    9     | 0 0 0 0 1 0 0 | 1110
              100000 |    a     | 0 0 0 1 0 0 0 | 1110
              110000 |    b     | 1 1 0 0 0 0 0 | 1110
              120000 |    c     | 0 1 1 0 0 0 1 | 1110
              130000 |    d     | 1 0 0 0 0 1 0 | 1110
              140000 |    e     | 0 1 1 0 0 0 0 | 1110
              150000 |    f     | 0 1 1 1 0 0 0 | 1110
-------------------------------------------
Test Complete.
$finish called at time : 160 ns : File "C:/FPGA/Lab3/Lab3.srcs/sim_1/new/tb_lab_part2a.sv" Line 62
